<?xml version="1.0" encoding="UTF-8" standalone="no"?>
<svg
   xmlns:dc="http://purl.org/dc/elements/1.1/"
   xmlns:cc="http://creativecommons.org/ns#"
   xmlns:rdf="http://www.w3.org/1999/02/22-rdf-syntax-ns#"
   xmlns:svg="http://www.w3.org/2000/svg"
   xmlns="http://www.w3.org/2000/svg"
   viewBox="0 0 644.0813 229.76359"
   height="229.7636"
   width="644.0813"
   xml:space="preserve"
   version="1.1"
   id="svg2"><metadata
     id="metadata8"><rdf:RDF><cc:Work
         rdf:about=""><dc:format>image/svg+xml</dc:format><dc:type
           rdf:resource="http://purl.org/dc/dcmitype/StillImage" /><dc:title></dc:title></cc:Work></rdf:RDF></metadata><defs
     id="defs6" /><g
     transform="matrix(1.25,0,0,-1.25,-12.716825,242.48068)"
     id="g10"><g
       id="g12"><path
         id="path14"
         style="fill:#000000;fill-opacity:1;fill-rule:nonzero;stroke:none"
         d="m 89.688,18.377 c 0.167,2.308 0.566,8.828 0.882,14.484 0.637,11.469 0.325,12.297 -3.945,10.504 -1.707,-0.719 -2.937,-0.801 -3.945,-0.258 -0.809,0.43 -3.153,0.571 -5.215,0.313 C 67.73,42.185 64.73,41.888 48.922,40.592 35.848,39.513 15.164,39.537 14.488,40.627 c -0.289,0.472 -0.398,0.968 -0.246,1.109 0.156,0.137 7.84,0.457 17.082,0.707 15.141,0.406 31.094,1.481 36.996,2.485 2.196,0.371 18.129,2.046 19.489,2.046 1.73,0 0.468,2.422 -2.086,4 -1.539,0.954 -3.34,2.504 -4,3.446 -1.176,1.675 -1.2,1.656 -1.2,-0.821 0,-1.39 -0.324,-2.73 -0.722,-2.976 -1.625,-1.004 -3.137,7.242 -5.641,30.754 -1.226,11.551 -1.762,25.863 -1.855,49.597 -0.086,22.637 0.062,24.305 2.816,31.5 1.774,4.637 9.875,5.911 15.875,2.493 1.942,-1.102 4.133,-2.219 4.871,-2.477 0.738,-0.262 1.59,-1.066 1.887,-1.793 0.949,-2.32 4.363,-20.422 4.367,-23.156 0,-1.449 0.516,-5.227 1.141,-8.399 1.527,-7.73 2.226,-15.48 3.336,-36.968 0.672,-13.09 0.64,-36.547 -0.055,-38.739 -0.68,-2.136 -1.723,-2.109 -2.891,0.067 -0.894,1.676 -0.949,1.679 -1.773,0.203 -1.168,-2.094 -2.672,-3.531 -3.699,-3.531 -0.473,0 -0.856,-0.559 -0.856,-1.246 0,-1.012 0.653,-1.161 3.399,-0.786 7.461,1.024 11.265,1.149 12.632,0.414 0.911,-0.484 1.536,-0.488 1.704,-0.007 0.277,0.808 2.136,1.05 18.523,2.418 11.152,0.933 12.887,1.679 13.648,5.878 0.356,1.954 0.055,2.395 -2.277,3.368 -1.476,0.617 -3.371,1.996 -4.211,3.066 -1.472,1.871 -1.566,1.887 -2.48,0.418 -1.403,-2.242 -3.153,-1.863 -4.969,1.078 -3.918,6.348 -5.34,18.969 -2.82,25.004 1.984,4.746 6.242,10.039 9.711,12.074 2.527,1.481 4.441,1.922 8.339,1.922 5.161,0 10.797,-1.801 11.516,-3.676 0.211,-0.546 2.027,-3.109 4.035,-5.695 3.25,-4.184 3.738,-5.363 4.426,-10.668 1.051,-8.101 1.012,-14.676 -0.105,-17.125 -1.145,-2.508 -1.786,-2.562 -2.864,-0.238 l -0.836,1.801 -0.84,-2.129 c -0.46,-1.168 -2.05,-3.098 -3.535,-4.278 -2.218,-1.769 -2.632,-2.578 -2.347,-4.539 0.191,-1.308 0.933,-2.558 1.648,-2.777 0.715,-0.215 1.84,-0.664 2.5,-1 0.66,-0.332 3.902,-0.328 7.203,0.012 3.297,0.336 9.016,0.632 12.707,0.66 9.664,0.074 16.891,1.523 16.891,3.39 0,0.801 -0.524,1.461 -1.164,1.461 -0.645,0 -2.617,1.379 -4.391,3.067 -3.191,3.035 -3.238,3.051 -4.402,1.398 l -1.18,-1.664 -1.551,1.953 c -2.531,3.188 -3.355,6.907 -6.05,27.246 -0.668,5.059 -1.676,12.438 -2.239,16.399 -0.562,3.961 -0.996,10.801 -0.965,15.199 0.051,7.027 0.317,8.508 2.188,12.152 5.055,9.84 15.484,12.746 29.348,8.172 10.277,-3.39 10.781,-3.707 11.777,-7.367 0.504,-1.844 2.074,-6.594 3.496,-10.555 2.133,-5.953 2.734,-9.199 3.469,-18.746 1.14,-14.832 1.047,-36.55 -0.172,-39.453 -1.152,-2.746 -3.027,-2.847 -3.691,-0.203 -0.516,2.051 -2.071,2.801 -2.075,1 0,-1.457 -3.203,-4.879 -6.199,-6.629 -1.43,-0.832 -2.598,-2.137 -2.598,-2.898 0,-1.262 1.067,-1.36 12.2,-1.114 6.711,0.149 14.718,0.497 17.8,0.774 3.079,0.277 8.84,0.652 12.801,0.836 3.957,0.183 7.289,0.355 7.399,0.383 0.109,0.027 0.199,0.574 0.199,1.211 0,0.636 0.621,1.507 1.379,1.929 1.277,0.715 1.222,1.219 -0.75,7.039 -3.25,9.59 -4.387,11.93 -6.457,13.285 -1.887,1.235 -1.899,1.321 -0.922,7.118 0.543,3.226 1.707,9.289 2.586,13.468 2.539,12.059 2.742,15.594 0.98,17.184 -1.402,1.27 -1.539,1.254 -2.379,-0.316 -0.492,-0.918 -1.382,-1.668 -1.984,-1.668 -1.918,0 -2.887,9.539 -2.953,29.191 -0.067,18.664 -0.047,18.891 1.98,23.035 1.129,2.305 3.059,4.781 4.293,5.512 1.848,1.09 7.75,1.848 11.918,1.531 2.442,-0.187 6.77,-9.473 7.864,-16.871 2.031,-13.742 2.089,-15.336 0.855,-24.23 -1.305,-9.411 -1.59,-10.793 -2.961,-14.368 -0.914,-2.386 -2.82,-2.921 -3.559,-1 -0.644,1.68 -1.624,1.493 -2.121,-0.402 -0.23,-0.879 -0.093,-1.598 0.305,-1.598 0.399,0 0.727,-0.371 0.727,-0.824 0,-0.449 1.832,-4.648 4.07,-9.324 4.539,-9.481 5.484,-13.18 3.867,-15.125 -1.5,-1.813 -1.555,-2.289 -2.082,-18.043 l -0.473,-14.113 1.836,-0.981 c 1.348,-0.722 4.954,-0.844 13.508,-0.469 6.422,0.286 13.778,0.567 16.348,0.625 2.945,0.067 4.816,0.481 5.062,1.118 0.582,1.515 2.719,2.086 3.965,1.05 0.914,-0.757 1.098,-0.019 1.098,4.352 0,7.508 -2.149,11.648 -6.074,11.707 -3.086,0.047 -4.438,2.641 -4.883,9.367 -0.531,7.961 0.847,14.641 6.238,30.258 3.34,9.691 4.215,13.324 4.535,18.879 0.344,6.047 -0.386,13.289 -1.914,18.922 -0.344,1.269 -0.144,1.801 0.68,1.801 1.437,0 3.594,-2.371 3.641,-4 0.046,-1.676 3.043,-9.371 4.539,-11.653 0.679,-1.039 1.238,-2.636 1.238,-3.543 0,-0.91 0.527,-1.855 1.172,-2.101 0.64,-0.25 1.41,-1.227 1.703,-2.176 0.293,-0.949 1.144,-2.629 1.887,-3.727 0.746,-1.101 1.984,-3.8 2.757,-6 0.774,-2.199 1.704,-4.718 2.071,-5.601 2.261,-5.457 4.57,-20.024 4.297,-27.086 -0.168,-4.297 -2.149,-14.512 -2.911,-15.02 -0.421,-0.277 -1.71,-0.246 -2.871,0.075 -1.652,0.453 -2.5,0.156 -3.941,-1.379 -1.547,-1.645 -1.801,-2.664 -1.602,-6.469 0.227,-4.27 0.36,-4.535 2.438,-4.774 1.211,-0.14 2.199,-0.726 2.199,-1.304 0,-1.024 4.805,-1.055 15.602,-0.094 1.761,0.16 6.121,0.324 9.687,0.371 6.305,0.078 6.481,0.133 6.141,1.902 -0.481,2.528 1.984,4.625 4.371,3.715 0.992,-0.375 1.801,-1.054 1.801,-1.511 0,-0.454 0.359,-0.825 0.8,-0.825 1.071,0 1.008,5.219 -0.144,12.215 -0.824,4.977 -1.336,6.094 -3.918,8.555 -1.633,1.555 -3.551,2.711 -4.262,2.57 -1.883,-0.379 -5.258,7.285 -5.269,11.957 -0.008,4.93 3.07,14.114 7.847,23.379 4.356,8.453 5.184,12.266 5.145,23.758 -0.024,7.492 -2.02,17.566 -3.484,17.566 -0.372,0 -1.262,1.137 -1.981,2.524 -1.844,3.57 -1.613,11.801 0.441,15.828 1.418,2.777 2.079,3.234 5.942,4.098 4.023,0.902 4.722,0.824 9.414,-1.039 4.414,-1.75 5.297,-2.461 6.82,-5.512 2.383,-4.758 2.289,-6.629 -0.98,-19.102 -1.555,-5.937 -3.043,-11.968 -3.305,-13.398 -0.262,-1.43 -0.711,-2.598 -1,-2.598 -0.289,0 -0.582,-0.633 -0.656,-1.402 -0.84,-8.914 -0.836,-10.664 0.031,-11.586 2.598,-2.75 7.402,-10.262 10.883,-17.012 6.773,-13.137 8.5,-31.265 3.113,-32.676 -0.933,-0.242 -2.367,-0.086 -3.183,0.352 -1.684,0.902 -3.055,0.348 -3.055,-1.238 0,-0.586 -0.57,-1.285 -1.27,-1.555 -0.964,-0.371 -1.164,-1.207 -0.832,-3.484 0.239,-1.653 0.668,-4.926 0.953,-7.278 0.52,-4.261 0.532,-4.277 3.036,-3.898 1.382,0.211 3.414,-0.078 4.515,-0.637 1.274,-0.648 4.172,-0.914 8,-0.726 3.297,0.16 10.5,0.515 16,0.789 10.746,0.527 15.535,1.898 14.879,4.25 -0.199,0.714 -0.586,2.421 -0.859,3.789 -0.453,2.257 -1.153,2.894 -5.446,4.961 -0.343,0.164 -0.523,-0.161 -0.402,-0.727 0.125,-0.566 -0.383,-1.16 -1.129,-1.324 -6.101,-1.34 -10.379,40.312 -7.824,76.199 0.441,6.16 1.027,14.441 1.305,18.402 0.996,14.215 4.964,17.989 15.949,15.161 2.598,-0.668 5.183,-1.832 5.742,-2.586 0.559,-0.758 1.527,-1.985 2.152,-2.731 2.239,-2.66 4.211,-12.957 4.875,-25.445 0.27,-5.059 0.622,-10.82 0.786,-12.801 1.019,-12.594 1.371,-15.941 1.976,-18.797 0.371,-1.762 0.926,-6.441 1.231,-10.402 0.308,-3.957 0.687,-8.82 0.843,-10.801 1.328,-16.848 1.332,-21.273 0.012,-23.82 -1.445,-2.797 -2.301,-3.145 -3.797,-1.543 -0.785,0.84 -1.308,0.719 -2.793,-0.656 -1.054,-0.977 -1.695,-2.344 -1.512,-3.235 0.172,-0.851 0.524,-2.539 0.782,-3.754 l 0.465,-2.211 10.582,0.434 c 12.691,0.519 21.617,1.152 22.027,1.566 0.875,0.871 -2.113,6.274 -4.215,7.621 -1.336,0.86 -2.969,1.907 -3.629,2.325 -0.66,0.418 -1.816,0.949 -2.566,1.179 -1.809,0.555 -3.852,7.7 -3.934,13.758 -0.136,9.899 4.664,19.567 10.891,21.934 4.746,1.804 18.008,-0.215 18.008,-2.742 0,-0.594 0.539,-1.29 1.195,-1.543 1.746,-0.668 5.57,-9.575 7.094,-16.512 2.883,-13.117 1.148,-21.395 -3.59,-17.11 -1.32,1.196 -1.602,1.153 -3.82,-0.597 -1.747,-1.383 -2.403,-2.59 -2.434,-4.492 -0.039,-2.235 0.23,-2.602 1.906,-2.602 1.074,0 2.137,-0.293 2.36,-0.652 0.222,-0.36 2.132,-0.559 4.246,-0.446 17.68488,1.958843 33.469,-2.164836 -4.926,-2.347 -7.024,-0.313 -13.125,-0.926 -13.559,-1.36 -1.015,-1.015 -4.234,-1.031 -4.855,-0.019 -0.262,0.422 -1.813,0.617 -3.445,0.433 -1.637,-0.187 -7.411,-0.539 -12.836,-0.781 -5.426,-0.242 -10.571,-0.816 -11.43,-1.277 -0.863,-0.461 -2.317,-0.602 -3.231,-0.309 -1.636,0.52 -1.652,0.391 -1.128,-8.558 0.679,-11.496 1.886,-23.918 2.835,-29.082 1.911,-10.422 1.583,-13.852 -1.066,-11.204 -0.723,0.723 -1.535,2.192 -1.801,3.258 -0.476,1.891 -1.914,2.754 -1.914,1.145 0,-0.438 -0.5,-0.801 -1.109,-0.801 -2.153,0 -3.281,9.809 -3.285,28.516 l -0.008,17.715 -3,-1.204 c -1.965,-0.785 -3.758,-0.98 -5.199,-0.566 -1.211,0.348 -2.922,0.578 -3.801,0.516 -0.879,-0.063 -7.18,-0.344 -14,-0.621 -6.82,-0.282 -13.785,-0.86 -15.477,-1.286 -2.961,-0.742 -3.023,-0.828 -1.703,-2.289 1.5,-1.656 1.125,-3.742 -0.804,-4.484 -1.844,-0.707 -5.215,0.383 -5.215,1.687 0,2.684 -3.325,4.418 -8.465,4.418 -4.563,0 -5,-0.152 -5.442,-1.914 -0.617,-2.465 -2.5,-3.164 -4.128,-1.539 -1.176,1.176 -1.54,1.137 -4.418,-0.48 -3.473,-1.953 -5.071,-1.586 -4.567,1.051 0.317,1.652 0.078,1.726 -5.121,1.558 -2.996,-0.097 -5.723,-0.336 -6.055,-0.531 -0.332,-0.195 -2.226,-0.285 -4.203,-0.199 -1.98,0.086 -6.66,-0.16 -10.402,-0.551 -3.738,-0.391 -8.766,-0.695 -11.168,-0.68 -2.945,0.02 -4.836,-0.394 -5.809,-1.273 -1.207,-1.094 -1.738,-1.141 -3.324,-0.293 -1.531,0.816 -5.57,0.765 -21.394,-0.285 -10.727,-0.711 -22.926,-1.266 -27.106,-1.235 -4.18,0.032 -13.18,-0.316 -20,-0.769 -6.82,-0.449 -16.355,-1.024 -21.191,-1.274 -4.836,-0.25 -9.141,-0.797 -9.559,-1.218 -0.422,-0.422 -1.957,-0.77 -3.41,-0.77 -1.449,0 -2.637,-0.359 -2.637,-0.797 0,-1.269 -2.402,-0.93 -2.918,0.414 -0.371,0.969 -1.301,1.11 -4.574,0.696 -2.262,-0.29 -4.469,-0.79 -4.91,-1.114 -0.438,-0.324 -2.184,-0.84 -3.879,-1.144 -2.336,-0.422 -3.441,-0.231 -4.57,0.789 -1.047,0.953 -2.262,1.211 -4.118,0.879 -1.449,-0.258 -7.671,-0.711 -13.832,-1.004 -6.16,-0.297 -11.742,-0.641 -12.402,-0.766 -0.66,-0.125 -2.363,-0.258 -3.785,-0.289 l -2.59,-0.062 0.309,-6.2 c 0.168,-3.41 -0.028,-6.832 -0.442,-7.601 -0.937,-1.754 -3.777,-1.828 -4.433,-0.117 -0.375,0.98 -0.739,0.695 -1.535,-1.2 -0.575,-1.367 -1.559,-2.484 -2.192,-2.484 -1.492,0 -2.414,7.074 -1.664,12.742 l 0.555,4.172 -7.91,-0.496 C 113.082,47.4 104.137,46.365 98.297,44.342 96.062,43.568 95.73,43.131 96.074,41.404 c 0.223,-1.117 0.578,-3.652 0.789,-5.629 0.215,-1.98 0.946,-7.289 1.625,-11.797 1.508,-10.011 1.508,-9.804 0.035,-9.804 -0.781,0 -1.199,0.781 -1.199,2.23 0,1.231 -0.535,4.285 -1.187,6.793 -0.657,2.508 -1.422,7.895 -1.703,11.969 -0.618,8.871 -0.664,9.226 -1.289,9.851 -0.27,0.27 -0.567,-3.589 -0.661,-8.578 -0.089,-4.984 -0.257,-10.054 -0.363,-11.265 -0.109,-1.211 -0.242,-4.18 -0.297,-6.602 -0.078,-3.285 -0.398,-4.398 -1.273,-4.398 -0.922,0 -1.11,0.902 -0.863,4.199 z m 358.761,8.246 c -0.894,5.051 -1.008,6.14 -2.324,22.351 -1.25,15.368 -1.687,18.235 -2.645,17.282 -0.906,-0.907 -1.027,-26.942 -0.148,-32.137 0.289,-1.707 0.941,-3.02 1.457,-2.922 0.512,0.098 1.637,-2.059 2.496,-4.793 0.86,-2.734 1.66,-4.875 1.781,-4.75 0.122,0.121 -0.156,2.359 -0.617,4.969 z M 149.578,41.095 c 0.77,0.774 2.145,-0.562 2.145,-2.082 0,-1.945 2.207,-2.761 2.691,-0.996 0.207,0.746 0.289,2.528 0.18,3.957 -0.106,1.43 -0.254,3.86 -0.332,5.403 -0.117,2.351 -0.434,2.797 -1.985,2.797 -4.054,0 -5.007,-2.43 -4.55,-11.598 l 0.16,-3.199 0.625,2.64 c 0.343,1.45 0.824,2.836 1.066,3.078 z m -55.344,6.68 c 0.43,0 0.559,0.36 0.289,0.801 -0.597,0.965 -4.402,1.078 -4.402,0.133 0,-1.149 1.07,-1.801 2.227,-1.36 0.609,0.235 1.457,0.426 1.886,0.426 z m 4.641,5.399 c 1.563,1.269 1.762,2.363 2.105,11.586 0.208,5.597 0.028,12.437 -0.406,15.199 -0.429,2.758 -1.008,8.789 -1.285,13.402 -0.277,4.613 -0.621,8.578 -0.766,8.813 -0.144,0.234 -0.488,4.379 -0.761,9.214 -0.274,4.832 -0.688,9.743 -0.914,10.911 -0.231,1.168 -0.039,2.359 0.429,2.648 0.465,0.289 0.891,0.051 0.95,-0.523 0.054,-0.579 0.25,-1.95 0.433,-3.047 0.184,-1.102 0.488,-3.621 0.684,-5.602 0.195,-1.98 0.73,-7.379 1.191,-12 0.461,-4.621 0.977,-10.625 1.149,-13.344 0.171,-2.718 0.738,-9.019 1.257,-14 0.52,-4.98 1.219,-11.937 1.551,-15.457 0.477,-5.074 0.617,-3.086 0.68,9.602 0.047,8.801 -0.254,19.598 -0.66,24 -2.012,21.687 -2.504,26.102 -3.633,32.398 -0.672,3.743 -1.922,11.661 -2.781,17.602 -0.864,5.941 -1.973,12.109 -2.469,13.707 -1.172,3.785 -5.656,6.41 -11.227,6.574 -8.019,0.238 -9.789,-5.14 -9.832,-29.883 -0.054,-30.609 0.317,-37.933 3.578,-70 0.457,-4.496 0.555,-1.742 0.329,9.282 -0.18,8.625 -0.7,18.3 -1.153,21.507 -0.949,6.704 -1.386,22.891 -0.636,23.641 0.527,0.531 1.097,-3.926 1.792,-14.027 1.981,-28.711 3.688,-46.528 4.645,-48.403 1.129,-2.211 3.266,-4.16 5.078,-4.625 3.684,-0.941 8.996,-0.531 10.672,0.825 z m -11.027,61.918 c -0.453,2.355 -1.063,6.777 -1.352,9.828 -0.293,3.05 -0.699,6.468 -0.906,7.601 -0.645,3.539 -1.633,12.391 -1.547,13.864 0.043,0.777 0.434,1.418 0.863,1.425 0.809,0.02 2.289,-9.3 3.231,-20.293 0.293,-3.445 0.648,-6.144 0.789,-6 0.722,0.739 0.949,12.313 0.355,18.2 -0.734,7.312 -0.476,8.691 1.293,6.921 2.137,-2.14 1.016,-32.503 -1.301,-35.148 -0.332,-0.379 -0.972,1.242 -1.425,3.602 z m -11.387,6.882 c -0.031,0.332 -0.18,1.231 -0.328,1.996 -0.149,0.77 0.058,1.602 0.461,1.848 0.402,0.25 0.73,-0.648 0.73,-1.996 0,-1.344 -0.179,-2.445 -0.402,-2.445 -0.219,0 -0.426,0.269 -0.461,0.597 z m 14.211,32.719 c -1.231,1.231 -0.516,3.481 1.105,3.481 1.246,0 1.594,-0.43 1.403,-1.735 -0.266,-1.804 -1.551,-2.703 -2.508,-1.746 z m -9.149,0.856 c -1.687,0.605 -1.191,3.425 0.598,3.425 1.051,0 1.602,-0.531 1.602,-1.55 0,-1.766 -0.743,-2.399 -2.2,-1.875 z M 153.324,54.51 c 0,2.703 -0.789,4.464 -2.004,4.464 -0.8,0 -0.847,-0.703 -0.215,-3.199 0.899,-3.535 2.219,-4.289 2.219,-1.265 z m 2.473,4.25 c -0.664,1.14 -0.832,0.781 -0.852,-1.852 -0.011,-1.797 0.246,-3.539 0.578,-3.875 0.946,-0.965 1.192,4.148 0.274,5.727 z m 53.527,-1.852 c 0,0.812 -1.027,1.133 -3.601,1.133 -2.575,0 -3.602,-0.321 -3.602,-1.133 0,-0.809 1.027,-1.133 3.602,-1.133 2.574,0 3.601,0.324 3.601,1.133 z m 187.199,2.484 c 0,0.668 -0.914,1.633 -2.031,2.145 -1.117,0.508 -1.855,1.383 -1.64,1.941 0.234,0.614 -0.047,0.848 -0.707,0.594 -0.875,-0.336 -0.774,-0.965 0.519,-3.156 1.664,-2.817 3.859,-3.684 3.859,-1.524 z M 275.109,74.174 c 0.286,11.183 0.711,15.746 1.746,18.66 1.657,4.66 1.305,6.644 -2.718,15.312 -1.641,3.535 -3.239,7.239 -3.551,8.231 -0.625,1.968 -2.063,2.457 -2.063,0.699 0,-0.606 0.493,-2.496 1.094,-4.199 1.778,-5.039 -0.816,-19.5 -3.496,-19.5 -1.988,0 -2.367,2.152 -2.449,14 -0.043,5.718 -0.223,10.039 -0.406,9.597 -0.18,-0.437 -1.231,-5.839 -2.332,-12 -1.102,-6.16 -2.414,-13.101 -2.918,-15.429 -0.778,-3.59 -0.731,-4.375 0.304,-5.2 2.66,-2.109 7.532,-13.683 9.684,-23.011 0.406,-1.766 0.887,-2.031 3.598,-2 l 3.132,0.043 z m 94.664,-12.18 c -0.269,0.266 -1.109,-0.164 -1.871,-0.961 -1.32,-1.383 -1.297,-1.402 0.489,-0.484 1.027,0.523 1.648,1.175 1.382,1.445 z m -209.605,2.215 c 1.461,1.105 2.203,2.574 2.52,4.984 0.578,4.379 1.441,4.867 3.058,1.735 0.711,-1.375 1.516,-2.282 1.785,-2.012 1.278,1.281 -0.785,16.929 -2.726,20.691 -0.692,1.336 -2.469,3.676 -3.95,5.199 -1.476,1.524 -2.89,3.411 -3.14,4.196 -0.539,1.699 -1.617,2.168 -6.477,2.828 -5.636,0.765 -8.875,-0.199 -12.789,-3.805 -1.937,-1.789 -3.527,-3.601 -3.527,-4.027 0,-0.426 -0.723,-1.793 -1.61,-3.035 -2.367,-3.325 -2.367,-14.649 0,-20.973 0.942,-2.52 2.09,-4.816 2.551,-5.102 1.27,-0.785 2.211,1.332 1.707,3.848 -0.746,3.723 1.828,2.742 3.946,-1.504 1.625,-3.262 2.379,-3.906 5.836,-5.008 4.546,-1.449 9.238,-0.722 12.816,1.985 z m -9.887,9.59 c -0.965,1.988 -1.758,3.968 -1.758,4.398 0,1.59 1.243,0.703 2.27,-1.621 1.371,-3.094 2.531,-3.066 2.531,0.059 0,1.8 0.332,2.386 1.242,2.199 1.512,-0.317 1.5,-0.18 0.325,-4.86 -0.528,-2.089 -1.383,-3.8 -1.903,-3.8 -0.519,0 -1.738,1.632 -2.707,3.621 z M 146.57,82.9 c -0.773,1.246 3.184,3.422 5.7,3.133 1.632,-0.188 2.253,-0.699 2.253,-1.859 0,-1.336 -0.613,-1.637 -3.726,-1.84 -2.051,-0.133 -3.953,0.121 -4.227,0.566 z m 6.352,0.875 c 0.273,0.442 -0.067,0.801 -0.75,0.801 -0.688,0 -1.25,-0.359 -1.25,-0.801 0,-0.441 0.34,-0.801 0.754,-0.801 0.414,0 0.976,0.36 1.246,0.801 z m -9.942,8.766 c -1.324,0.816 -0.554,3.234 1.032,3.234 0.629,0 1.336,-0.512 1.578,-1.14 0.582,-1.512 -1.219,-2.957 -2.61,-2.094 z m 10.332,1.246 c -1.175,1.418 -0.359,2.789 1.657,2.789 0.992,0 1.554,-0.551 1.554,-1.516 0,-1.933 -2.003,-2.73 -3.211,-1.273 z m 57.61,-32.41 c 0,0.437 0.449,0.804 1,0.812 0.551,0.008 2.398,1.192 4.101,2.633 2.704,2.285 3.157,3.164 3.504,6.789 0.305,3.192 0.711,4.164 1.731,4.164 0.91,0 1.664,-1.207 2.379,-3.801 0.996,-3.625 1.078,-3.707 1.84,-1.8 0.753,1.882 0.343,24.312 -0.641,35.203 -0.824,9.144 -2.793,18.609 -4.621,22.238 -1.043,2.07 -2.141,4.906 -2.445,6.305 -0.301,1.398 -1.02,2.937 -1.598,3.414 -1.809,1.5 -12.672,4.976 -16.942,5.418 -7.753,0.804 -14.742,-3.039 -18.277,-10.047 -1.543,-3.067 -1.801,-15.715 -0.469,-23.285 0.43,-2.446 1.364,-9.125 2.078,-14.844 0.711,-5.719 1.665,-12.379 2.118,-14.801 0.453,-2.418 0.988,-5.48 1.191,-6.801 0.664,-4.312 1.051,-4.988 1.945,-3.398 1.18,2.105 1.805,1.766 4.782,-2.594 1.695,-2.484 3.785,-4.433 5.523,-5.16 3.195,-1.328 12.801,-1.664 12.801,-0.445 z m -11.289,21.398 c -0.469,1.211 -1.36,4.539 -1.977,7.399 -0.621,2.863 -1.687,7.363 -2.367,10 -3.973,15.371 -4.531,21.902 -2.269,26.511 1.714,3.496 4.839,4.817 9.386,3.965 2.762,-0.519 2.801,-0.582 3.313,-5.5 0.676,-6.461 -0.16,-30.805 -1.27,-36.953 -1.387,-7.684 -3.168,-9.687 -4.816,-5.422 z m 1.859,30 c -0.273,4.328 -0.113,6.199 0.52,6.199 1.289,0 1.144,5.778 -0.192,7.606 -1.047,1.43 -1.211,1.437 -3.168,0.152 -3.14,-2.058 -4.113,-6.746 -2.66,-12.836 l 1.176,-4.922 -0.125,5.176 c -0.098,4.195 0.125,5.223 1.18,5.438 1.859,0.382 2.273,-1.328 2.429,-10.067 0.086,-4.859 0.34,-6.851 0.684,-5.347 0.301,1.32 0.371,5.191 0.156,8.601 z m -16.601,13.453 c -0.508,0.821 0.191,6.348 0.804,6.348 2.45,0 3.551,-2.785 2.344,-5.934 -0.555,-1.445 -2.363,-1.683 -3.148,-0.414 z m 25.949,3.746 c -1.582,2.84 -1.481,5.305 0.238,5.637 1.5,0.293 3.844,-3.484 3.844,-6.195 0,-2.418 -2.621,-2.059 -4.082,0.558 z M 325.832,73.131 c -0.199,0.199 -1.027,0.464 -1.836,0.589 -1.781,0.27 -2.394,-2.078 -2,-7.617 0.231,-3.215 0.555,-3.875 2,-4.082 1.606,-0.23 1.742,0.137 1.965,5.25 0.129,3.024 0.07,5.66 -0.129,5.86 z m 45.313,-6.821 c -1.446,1.442 -1.942,1.563 -2.969,0.707 -1.723,-1.425 -0.821,-2.441 2.172,-2.441 l 2.531,0 z m 15.585,-0.593 c 0.348,0.347 -2.097,15.015 -2.585,15.503 -0.235,0.231 -0.422,-1.824 -0.422,-4.566 0,-4.621 -0.118,-4.949 -1.602,-4.48 -0.918,0.293 -1.598,0.144 -1.598,-0.344 0,-1.192 -2.179,-1.074 -2.671,0.144 -0.223,0.551 -0.43,-0.648 -0.465,-2.664 -0.035,-2.019 0.207,-3.941 0.535,-4.273 0.527,-0.535 8.187,0.058 8.808,0.68 z m -11.257,4.257 c -0.2,0.77 -0.364,0.141 -0.364,-1.398 0,-1.539 0.164,-2.172 0.364,-1.402 0.203,0.773 0.203,2.031 0,2.8 z m 65.172,2.602 c -0.176,2.551 -0.645,4 -1.293,4 -0.762,0 -0.852,-0.84 -0.356,-3.402 0.359,-1.868 0.672,-3.668 0.692,-4 0.019,-0.329 0.304,-0.598 0.636,-0.598 0.328,0 0.473,1.797 0.321,4 z m 3.597,-0.199 c -0.512,5.023 -0.652,5.183 -1.265,1.398 -0.571,-3.527 -0.286,-5.199 0.882,-5.199 0.438,0 0.602,1.641 0.383,3.801 z m 47.578,1.371 c -1.418,3.031 -2.597,3.781 -1.929,1.226 0.297,-1.136 0.023,-1.597 -0.95,-1.597 -0.753,0 -1.558,0.718 -1.785,1.597 -0.265,1.012 -1.094,1.602 -2.254,1.602 -1.722,0 -1.777,-0.164 -0.968,-2.801 0.836,-2.73 0.961,-2.801 5.023,-2.801 l 4.164,0 z m -113.57,5.23 c 0.168,1.629 -0.113,2.793 -0.727,2.996 -0.726,0.243 -0.988,-0.937 -0.949,-4.332 0.051,-4.906 1.121,-4.054 1.676,1.336 z M 328.512,76.97 c 2.14,1.321 7.574,14.051 7.027,16.454 -0.117,0.523 0.285,1.132 0.895,1.355 1.203,0.438 0.976,-3.601 -0.618,-11.004 -0.554,-2.59 -0.511,-3.824 0.153,-4.398 0.511,-0.442 0.676,-0.485 0.371,-0.102 -0.305,0.387 -0.028,1.961 0.613,3.5 1.992,4.762 1.578,21.012 -0.762,29.988 -2.519,9.676 -4.671,15.317 -7.886,20.661 -1.438,2.394 -3.25,5.687 -4.02,7.316 -0.773,1.633 -1.664,3.129 -1.984,3.324 -0.317,0.199 -0.629,-2.758 -0.696,-6.566 -0.085,-5.121 -0.632,-8.379 -2.105,-12.524 -1.098,-3.078 -2.633,-7.398 -3.414,-9.597 -0.781,-2.203 -1.875,-5.082 -2.426,-6.403 -1.699,-4.074 -2.738,-11.546 -2.715,-19.546 0.028,-8.293 1.067,-8.547 1.852,-0.454 0.258,2.641 0.48,5.071 0.496,5.403 0.016,0.328 0.598,0.597 1.293,0.597 0.996,0 1.148,-0.523 0.719,-2.48 -0.301,-1.367 -0.524,-4.516 -0.5,-7 0.047,-4.149 0.289,-4.738 2.976,-7.215 2.676,-2.465 3.235,-2.652 6.5,-2.207 1.965,0.27 3.871,0.672 4.231,0.898 z m -4.75,11.305 c -1.684,3.805 -2.227,9.899 -0.887,9.899 0.992,0 1.844,-1.379 2.965,-4.797 l 0.914,-2.801 0.086,2.465 c 0.047,1.359 0.297,2.683 0.562,2.945 0.918,0.918 2.766,-0.41 2.371,-1.707 -0.214,-0.715 -0.601,-2.523 -0.851,-4.016 -0.543,-3.203 -1.762,-5.687 -2.789,-5.687 -0.406,0 -1.473,1.664 -2.371,3.699 z m 5.058,16.676 c -0.273,0.711 -0.254,1.535 0.043,1.832 0.676,0.676 3.313,-0.934 3.102,-1.895 -0.289,-1.3 -2.637,-1.253 -3.145,0.063 z m -9.054,1.144 c -0.629,1.172 -0.52,1.633 0.472,2.016 1.887,0.723 3.758,-1.039 2.598,-2.441 -1.242,-1.492 -2.106,-1.375 -3.07,0.425 z M 446.504,79.912 c 3.769,1.719 3.934,5.465 1.387,31.449 -2.118,21.555 -2.336,40.414 -0.473,40.414 0.922,0 1.117,0.555 0.777,2.199 -0.25,1.211 -0.797,6.582 -1.215,11.938 -1.269,16.258 -5.73,22.195 -15.558,20.719 -4.797,-0.719 -5.754,-2.957 -7.375,-17.254 -1.453,-12.782 -2.215,-53.672 -1.129,-60.403 0.352,-2.199 0.875,-6.519 1.156,-9.597 0.281,-3.082 0.887,-7.762 1.352,-10.399 2.656,-15.172 4.008,-0.605 1.894,20.399 -2.172,21.574 -2.414,28.297 -1.48,41.449 0.879,12.348 1.867,7.301 1.82,-9.293 -0.023,-8.668 0.156,-17.559 0.395,-19.758 0.414,-3.769 1.945,-21.301 2.55,-29.199 0.153,-1.981 0.559,-5.383 0.903,-7.563 0.609,-3.867 0.711,-3.988 4.219,-4.921 4.753,-1.266 8.261,-1.325 10.777,-0.18 z m -8.442,26.062 c -0.035,1.211 -0.191,2.743 -0.347,3.403 -0.852,3.617 -1.961,10.59 -2.348,14.797 -0.246,2.64 -0.992,8.043 -1.66,12 -1.586,9.41 -2.602,36.078 -1.344,35.3 1.168,-0.722 1.614,-3.757 2.141,-14.652 0.238,-4.926 0.582,-9.426 0.766,-10 0.179,-0.574 0.542,-4.105 0.804,-7.848 0.778,-11.25 3.125,-26.367 3.66,-23.597 0.641,3.312 0.368,8.949 -1.203,24.797 -0.742,7.48 -1.633,16.48 -1.976,20 -0.348,3.523 -0.766,6.921 -0.934,7.554 -0.164,0.633 0.301,1.285 1.035,1.446 2.164,0.476 2.539,-1.297 3.453,-16.2 0.325,-5.277 0.727,-10.32 0.899,-11.199 0.402,-2.097 1.422,-16.015 1.43,-19.601 0.007,-1.539 -0.286,-5.68 -0.649,-9.2 -0.363,-3.519 -0.641,-7.027 -0.613,-7.8 0.031,-0.868 -0.543,-1.399 -1.504,-1.399 -1.141,0 -1.567,0.578 -1.61,2.199 z m -8.98,71.907 c -0.309,0.308 -0.559,1.402 -0.559,2.429 0,1.332 0.457,1.864 1.598,1.864 1.067,0 1.602,-0.532 1.602,-1.598 0,-0.879 0.019,-1.871 0.043,-2.199 0.058,-0.817 -1.985,-1.192 -2.684,-0.496 z m 8.809,0.793 c -1.395,1.394 -0.496,2.8 1.632,2.554 1.309,-0.152 2.2,-0.738 2.2,-1.453 0,-1.258 -2.856,-2.078 -3.832,-1.101 z M 493.016,81.42 c 2.527,1.222 3.531,2.25 3.918,4 0.644,2.949 2.183,3.004 4.257,0.156 2,-2.746 3.133,-1.809 1.95,1.621 -0.493,1.418 -1.145,4.906 -1.453,7.754 -0.665,6.117 -3.833,14.164 -6.481,16.453 -1.035,0.899 -1.883,2.063 -1.883,2.586 0,1.344 -3.562,2.176 -9.347,2.18 -4.407,0.004 -5.227,-0.258 -7.473,-2.395 -5.141,-4.883 -7.371,-12.629 -6.211,-21.601 0.801,-6.211 1.281,-7.536 2.191,-6.059 0.891,1.438 3.551,0.43 2.957,-1.117 -0.476,-1.242 2.715,-3.945 5.481,-4.637 3.789,-0.949 8.863,-0.504 12.094,1.059 z m -6.297,5.754 c -1.879,1.433 -5.395,8.851 -5.395,11.375 0,3.015 2.574,2.394 3.235,-0.778 0.273,-1.316 1.129,-3.605 1.898,-5.086 1.793,-3.445 2.957,-2.422 3.481,3.059 0.453,4.703 0.941,5.25 3.113,3.488 1.554,-1.262 1.558,-1.355 0.121,-5.719 -0.805,-2.437 -2.168,-5.085 -3.024,-5.886 -1.855,-1.727 -1.773,-1.715 -3.429,-0.453 z m -7.297,21.832 c -0.277,0.722 -0.313,1.625 -0.078,2.007 0.633,1.02 3.98,-0.437 3.98,-1.73 0,-1.621 -3.297,-1.855 -3.902,-0.277 z m 7.859,0.437 c -0.758,1.227 0.883,2.641 2.387,2.063 0.691,-0.262 1.254,-1.032 1.254,-1.707 0,-1.395 -2.828,-1.672 -3.641,-0.356 z M 453.785,93.174 c -0.316,6.05 -0.687,11.91 -0.828,13.019 -0.141,1.11 -0.469,3.633 -0.734,5.602 -0.442,3.289 -1.086,9.133 -2.848,25.816 -0.363,3.43 -0.793,6.371 -0.957,6.535 -0.531,0.532 0.105,-18.992 0.859,-26.371 0.407,-3.961 0.785,-9.519 0.84,-12.351 0.055,-2.836 0.266,-5.422 0.469,-5.75 0.203,-0.329 0.691,-4.028 1.09,-8.223 0.687,-7.277 1.164,-9.277 2.215,-9.277 0.257,0 0.211,4.953 -0.106,11 z m -65.5,-7.641 c 2.836,2.281 3.863,12.801 1.863,19.043 -0.351,1.098 -1.105,3.621 -1.675,5.598 -0.571,1.98 -1.364,4.035 -1.762,4.566 -0.773,1.027 -0.16,2.637 1,2.637 2.227,0 6.582,-17.887 5.629,-23.106 -0.453,-2.48 -0.219,-3.453 1.273,-5.328 l 1.828,-2.289 0.84,2.211 c 1.172,3.082 1.051,7.371 -0.359,12.781 -0.66,2.535 -1.199,5.16 -1.199,5.832 0,2.239 -6.934,15.825 -10.594,20.766 -1.984,2.676 -4.004,5.609 -4.488,6.512 -1.176,2.199 -0.469,8.664 1.867,17.019 1.043,3.742 2.16,8.242 2.48,10 0.324,1.762 1.078,4.383 1.68,5.824 0.602,1.442 1.152,4.864 1.223,7.602 0.152,5.894 -1.582,9.867 -4.805,11.008 -1.191,0.422 -2.703,1.039 -3.363,1.367 -2.125,1.062 -7,0.168 -8.957,-1.645 -2.153,-1.996 -4.657,-10.734 -3.328,-11.621 0.441,-0.293 1.976,-2.965 3.41,-5.933 1.433,-2.973 2.672,-5.403 2.746,-5.403 0.078,0 0.019,1.539 -0.133,3.418 -0.262,3.332 -0.188,3.453 3.109,4.911 l 3.383,1.488 1.488,-1.906 c 1.164,-1.489 1.465,-3.141 1.375,-7.512 -0.136,-6.567 -2.644,-14.203 -4.543,-13.832 -1.359,0.265 -3.199,4.726 -3.289,7.988 -0.035,1.184 -0.332,2.32 -0.66,2.524 -0.332,0.203 -0.48,-5.485 -0.336,-12.641 0.266,-12.875 0.246,-13.055 -1.941,-17.324 -1.215,-2.371 -2.844,-5.243 -3.625,-6.375 -4.34,-6.332 -8.195,-25.071 -5.5,-26.739 0.441,-0.269 0.812,0.157 0.828,0.954 0.16,8.019 2.691,17.847 4.594,17.847 1.558,0 1.718,-1.172 0.426,-3.137 -1.012,-1.535 -1.383,-3.972 -1.454,-9.535 -0.136,-10.621 0.067,-11.363 3.875,-14.254 5.68,-4.308 13.883,-5.898 17.094,-3.316 z m -16.828,92.375 c -1.031,1.031 -0.547,4.266 0.637,4.266 1.379,0 3.117,-2.883 2.418,-4.016 -0.555,-0.898 -2.27,-1.035 -3.055,-0.25 z m 9.059,1.082 c -1.11,2.07 -0.383,3.234 1.804,2.902 2.094,-0.32 2.692,-1.765 1.379,-3.343 -1.32,-1.594 -2.16,-1.477 -3.183,0.441 z m -112.52,-72.906 c 0.043,3.406 -0.344,6.797 -0.875,7.691 -0.769,1.297 -0.949,-0.133 -0.949,-7.601 0,-7.055 0.203,-8.848 0.875,-7.688 0.484,0.828 0.91,4.25 0.949,7.598 z m 0.055,14.89 c 2.242,2.418 2.871,6.399 2.871,18.114 0,6.89 0.23,8.687 1.117,8.687 1.844,0 2.149,-2.207 1.594,-11.629 -0.289,-4.949 -0.25,-10.027 0.09,-11.285 0.593,-2.207 0.652,-2.148 1.718,1.715 0.606,2.199 1.332,8.867 1.61,14.816 0.437,9.399 0.269,11.918 -1.281,19.2 -1.106,5.195 -2.586,9.66 -3.891,11.738 l -2.106,3.351 -4.593,-0.226 c -2.524,-0.125 -5.153,-0.695 -5.84,-1.266 -1.77,-1.469 -3.481,-5.383 -4.317,-9.875 -0.824,-4.433 -0.363,-33.754 0.606,-38.539 l 0.644,-3.199 0.629,5 c 0.426,3.394 0.981,5 1.723,5 0.605,0 1.145,-0.359 1.199,-0.801 0.055,-0.441 0.188,-1.16 0.297,-1.601 0.113,-0.438 0.246,-2.254 0.301,-4.036 0.074,-2.394 0.652,-3.75 2.219,-5.203 2.636,-2.441 3.113,-2.441 5.41,0.039 z m -5.227,11.403 c -1.402,3.578 -1.894,21.945 -0.703,26.195 0.567,2.027 1.422,3.516 1.914,3.332 0.488,-0.18 0.719,-0.824 0.512,-1.43 -0.207,-0.605 -0.469,-6.32 -0.582,-12.699 -0.238,-13.398 0.976,-13.137 1.851,0.403 0.387,6.003 0.832,8.398 1.567,8.398 1.535,0 1.66,-2.031 0.644,-10.563 -1.113,-9.328 -2.593,-15.839 -3.605,-15.839 -0.406,0 -1.125,0.992 -1.598,2.203 z m -4.48,35.941 c 0.363,2.344 1.34,3.422 2.648,2.922 1.86,-0.715 1.051,-3.82 -1.074,-4.121 -1.363,-0.195 -1.746,0.098 -1.574,1.199 z m 10.324,1.258 c 0.141,0.988 0.793,1.801 1.453,1.801 0.66,0 1.317,-0.813 1.457,-1.801 0.195,-1.387 -0.137,-1.801 -1.457,-1.801 -1.316,0 -1.652,0.414 -1.453,1.801 z m 111.82,-5.602 c 0.035,5.239 -0.027,5.403 -1.965,5.403 -1.898,0 -2,-0.235 -2,-4.508 0,-2.481 0.434,-5.961 0.965,-7.734 l 0.969,-3.231 0.996,2.336 c 0.551,1.285 1.012,4.766 1.035,7.734 z M 93.324,17.377 c 0,4.758 2.137,4.136 2.926,-0.852 0.309,-1.961 0.094,-2.351 -1.277,-2.351 -1.391,0 -1.649,0.504 -1.649,3.203 z" /></g></g></svg>